Mystic mops project 2
…
Polina Dymova - Chi-squared test script & interpretations, comparison of Chi-squared test & T-test, customizing the report

knitr::opts_chunk$set(echo = TRUE)
library(haven)
ESS <- read_sav("C:/Users/Anna/Downloads/ESS1-9e01_1.sav")
library(ggplot2)
library(moments)
library(sjPlot)

## #refugeeswelcome

ESS

## # A tibble: 1,755 x 16
##    cntry     cname cedition cproddat cseqno name  essround edition  idno dweight
##    <chr+lbl> <chr> <chr>    <chr>     <dbl> <chr> <dbl+lb> <chr>   <dbl>   <dbl>
##  1 FI [Finl~ ESS1~ 1.0      10.12.2~ 164852 ESS9~    9 [9] 3          19       1
##  2 FI [Finl~ ESS1~ 1.0      10.12.2~ 164853 ESS9~    9 [9] 3          57       1
##  3 FI [Finl~ ESS1~ 1.0      10.12.2~ 164854 ESS9~    9 [9] 3          86       1
##  4 FI [Finl~ ESS1~ 1.0      10.12.2~ 164855 ESS9~    9 [9] 3         120       1
##  5 FI [Finl~ ESS1~ 1.0      10.12.2~ 164856 ESS9~    9 [9] 3         164       1
##  6 FI [Finl~ ESS1~ 1.0      10.12.2~ 164857 ESS9~    9 [9] 3         238       1
##  7 FI [Finl~ ESS1~ 1.0      10.12.2~ 164858 ESS9~    9 [9] 3         314       1
##  8 FI [Finl~ ESS1~ 1.0      10.12.2~ 164859 ESS9~    9 [9] 3         326       1
##  9 FI [Finl~ ESS1~ 1.0      10.12.2~ 164860 ESS9~    9 [9] 3         360       1
## 10 FI [Finl~ ESS1~ 1.0      10.12.2~ 164861 ESS9~    9 [9] 3         362       1
## # ... with 1,745 more rows, and 6 more variables: pspwght <dbl>, pweight <dbl>,
## #   anweight <dbl>, trstplc <dbl+lbl>, stfgov <dbl+lbl>, gndr <dbl+lbl>
…
